Adder_8bit.2/simulation/qsim/wrapper_8.msim.vcd
$comment
	File created using the following command:
		vcd file wrapper_8.msim.vcd -direction
$end
$date
	Sun Apr 16 22:34:29 2023
$end
$version
	ModelSim Version 10.1d
$end
$timescale
	1ps
$end
$scope module wrapper_8_vlg_vec_tst $end
$var reg 8 ! M [7:0] $end
$var reg 8 " N [7:0] $end
$var reg 1 # clk_i $end
$var wire 1 $ OUT [8] $end
$var wire 1 % OUT [7] $end
$var wire 1 & OUT [6] $end
$var wire 1 ' OUT [5] $end
$var wire 1 ( OUT [4] $end
$var wire 1 ) OUT [3] $end
$var wire 1 * OUT [2] $end
$var wire 1 + OUT [1] $end
$var wire 1 , OUT [0] $end
$var wire 1 - sampler $end
$scope module i1 $end
$var wire 1 . gnd $end
$var wire 1 / vcc $end
$var wire 1 0 unknown $end
$var tri1 1 1 devclrn $end
$var tri1 1 2 devpor $end
$var tri1 1 3 devoe $end
$var wire 1 4 Decoder0~0_combout $end
$var wire 1 5 Decoder0~1_combout $end
$var wire 1 6 Decoder0~2_combout $end
$var wire 1 7 Decoder0~3_combout $end
$var wire 1 8 Decoder0~5_combout $end
$var wire 1 9 Decoder0~6_combout $end
$var wire 1 : clk_i~combout $end
$var wire 1 ; clk_i~clkctrl_outclk $end
$var wire 1 < Add0~1_combout $end
$var wire 1 = i~0_combout $end
$var wire 1 > Add0~0_combout $end
$var wire 1 ? S~0_combout $end
$var wire 1 @ Add0~2_combout $end
$var wire 1 A Mux1~2_combout $end
$var wire 1 B Mux1~3_combout $end
$var wire 1 C Mux1~0_combout $end
$var wire 1 D Mux1~1_combout $end
$var wire 1 E Mux1~4_combout $end
$var wire 1 F Mux0~2_combout $end
$var wire 1 G Mux0~3_combout $end
$var wire 1 H Mux0~0_combout $end
$var wire 1 I Mux0~1_combout $end
$var wire 1 J Mux0~4_combout $end
$var wire 1 K C~0_combout $end
$var wire 1 L C~regout $end
$var wire 1 M S~1_combout $end
$var wire 1 N S~2_combout $end
$var wire 1 O OUT[0]~reg0feeder_combout $end
$var wire 1 P OUT[0]~reg0_regout $end
$var wire 1 Q S~3_combout $end
$var wire 1 R S~4_combout $end
$var wire 1 S OUT[1]~reg0feeder_combout $end
$var wire 1 T OUT[1]~reg0_regout $end
$var wire 1 U S~5_combout $end
$var wire 1 V OUT[2]~reg0feeder_combout $end
$var wire 1 W OUT[2]~reg0_regout $end
$var wire 1 X S~6_combout $end
$var wire 1 Y OUT[3]~reg0feeder_combout $end
$var wire 1 Z OUT[3]~reg0_regout $end
$var wire 1 [ S~7_combout $end
$var wire 1 \ OUT[4]~reg0feeder_combout $end
$var wire 1 ] OUT[4]~reg0_regout $end
$var wire 1 ^ Decoder0~4_combout $end
$var wire 1 _ S~8_combout $end
$var wire 1 ` OUT[5]~reg0feeder_combout $end
$var wire 1 a OUT[5]~reg0_regout $end
$var wire 1 b S~9_combout $end
$var wire 1 c OUT[6]~reg0feeder_combout $end
$var wire 1 d OUT[6]~reg0_regout $end
$var wire 1 e S~10_combout $end
$var wire 1 f OUT[7]~reg0feeder_combout $end
$var wire 1 g OUT[7]~reg0_regout $end
$var wire 1 h OUT[8]~reg0feeder_combout $end
$var wire 1 i OUT[8]~reg0_regout $end
$var wire 1 j M~combout [7] $end
$var wire 1 k M~combout [6] $end
$var wire 1 l M~combout [5] $end
$var wire 1 m M~combout [4] $end
$var wire 1 n M~combout [3] $end
$var wire 1 o M~combout [2] $end
$var wire 1 p M~combout [1] $end
$var wire 1 q M~combout [0] $end
$var wire 1 r S [7] $end
$var wire 1 s S [6] $end
$var wire 1 t S [5] $end
$var wire 1 u S [4] $end
$var wire 1 v S [3] $end
$var wire 1 w S [2] $end
$var wire 1 x S [1] $end
$var wire 1 y S [0] $end
$var wire 1 z N~combout [7] $end
$var wire 1 { N~combout [6] $end
$var wire 1 | N~combout [5] $end
$var wire 1 } N~combout [4] $end
$var wire 1 ~ N~combout [3] $end
$var wire 1 !! N~combout [2] $end
$var wire 1 "! N~combout [1] $end
$var wire 1 #! N~combout [0] $end
$var wire 1 $! i [3] $end
$var wire 1 %! i [2] $end
$var wire 1 &! i [1] $end
$var wire 1 '! i [0] $end
$upscope $end
$upscope $end
$enddefinitions $end
#0
$dumpvars
b11111111 !
b1011011 "
0#
0,
0+
0*
0)
0(
0'
0&
0%
0$
x-
0.
1/
x0
11
12
13
04
05
06
07
08
09
0:
0;
0<
1=
0>
0?
0@
1A
1B
1C
1D
1E
1F
1G
1H
1I
1J
1K
0L
0M
0N
0O
0P
1Q
0R
0S
0T
0U
0V
0W
0X
0Y
0Z
0[
0\
0]
0^
0_
0`
0a
0b
0c
0d
0e
0f
0g
0h
0i
1q
1p
1o
1n
1m
1l
1k
1j
0y
0x
0w
0v
0u
0t
0s
0r
1#!
1"!
0!!
1~
1}
0|
1{
0z
0'!
0&!
0%!
0$!
$end
#2500
1#
1:
1;
0-
1L
1'!
1h
0Q
1M
0C
0A
1?
0=
1<
14
1R
1N
0B
0M
0N
#5000
0#
0:
0;
1-
#7500
1#
1:
1;
0-
1x
0'!
1&!
1S
0H
0F
0D
1=
15
04
1B
0E
1U
0U
#10000
0#
0:
0;
1-
#12500
1#
1:
1;
0-
1'!
1H
1F
1D
1C
1A
1@
0=
0<
16
05
1E
0B
1X
#15000
0#
0:
0;
1-
#17500
1#
1:
1;
0-
1v
1%!
0'!
0&!
1Y
0E
17
06
1=
1B
1E
1[
#20000
0#
0:
0;
1-
#22500
1#
1:
1;
0-
1u
1'!
1\
1^
0C
0A
0=
1<
07
1_
0B
0E
0_
#25000
0#
0:
0;
1-
#27500
1#
1:
1;
0-
0'!
1&!
0^
0H
0F
0D
1=
18
1B
1E
1b
#30000
0#
0:
0;
1-
#32500
1#
1:
1;
0-
1s
1'!
1c
1H
1F
1D
1C
1A
0@
1>
0=
0<
19
08
0B
1e
0E
0e
#35000
0#
0:
0;
1-
#37500
1#
1:
1;
0-
0%!
1$!
0'!
0&!
1E
09
1B
#40000
0#
0:
0;
1-
#42500
1#
1:
1;
0-
1i
1d
0s
1]
0u
1Z
0v
1T
0x
0L
0$!
0c
0b
0\
0[
0Y
0X
0S
0R
0h
1Q
0?
0>
1=
1$
1&
1(
1)
1+
#45000
0#
0:
0;
1-
#47500
1#
1:
1;
0-
1L
1'!
1h
0Q
1M
0C
0A
1?
0=
1<
14
1R
1N
0B
0M
0N
#50000
0#
0:
0;
1-
#52500
1#
1:
1;
0-
1x
0'!
1&!
1S
0H
0F
0D
1=
15
04
1B
0E
1U
0U
#55000
0#
0:
0;
1-
#57500
1#
1:
1;
0-
1'!
1H
1F
1D
1C
1A
1@
0=
0<
16
05
1E
0B
1X
#60000
0#
0:
0;
1-
#62500
1#
1:
1;
0-
1v
1%!
0'!
0&!
1Y
0E
17
06
1=
1B
1E
1[
#65000
0#
0:
0;
1-
#67500
1#
1:
1;
0-
1u
1'!
1\
1^
0C
0A
0=
1<
07
1_
0B
0E
0_
#70000
0#
0:
0;
1-
#72500
1#
1:
1;
0-
0'!
1&!
0^
0H
0F
0D
1=
18
1B
1E
1b
#75000
0#
0:
0;
1-
#77500
1#
1:
1;
0-
1s
1'!
1c
1H
1F
1D
1C
1A
0@
1>
0=
0<
19
08
0B
1e
0E
0e
#80000
0#
0:
0;
1-
#82500
1#
1:
1;
0-
0%!
1$!
0'!
0&!
1E
09
1B
#85000
0#
0:
0;
1-
#87500
1#
1:
1;
0-
0s
0u
0v
0x
0L
0$!
0c
0b
0\
0[
0Y
0X
0S
0R
0h
1Q
0?
0>
1=
#90000
0#
0:
0;
1-
#92500
1#
1:
1;
0-
1L
1'!
1h
0Q
1M
0C
0A
1?
0=
1<
14
1R
1N
0B
0M
0N
#95000
0#
0:
0;
1-
#97500
1#
1:
1;
0-
1x
0'!
1&!
1S
0H
0F
0D
1=
15
04
1B
0E
1U
0U
#100000
0#
0:
0;
1-
#102500
1#
1:
1;
0-
1'!
1H
1F
1D
1C
1A
1@
0=
0<
16
05
1E
0B
1X
#105000
0#
0:
0;
1-
#107500
1#
1:
1;
0-
1v
1%!
0'!
0&!
1Y
0E
17
06
1=
1B
1E
1[
#110000
0#
0:
0;
1-
#112500
1#
1:
1;
0-
1u
1'!
1\
1^
0C
0A
0=
1<
07
1_
0B
0E
0_
#115000
0#
0:
0;
1-
#117500
1#
1:
1;
0-
0'!
1&!
0^
0H
0F
0D
1=
18
1B
1E
1b
#120000
0#
0:
0;
1-
#122500
1#
1:
1;
0-
1s
1'!
1c
1H
1F
1D
1C
1A
0@
1>
0=
0<
19
08
0B
1e
0E
0e
#125000
0#
0:
0;
1-
#127500
1#
1:
1;
0-
0%!
1$!
0'!
0&!
1E
09
1B
#130000
0#
0:
0;
1-
#132500
1#
1:
1;
0-
0s
0u
0v
0x
0L
0$!
0c
0b
0\
0[
0Y
0X
0S
0R
0h
1Q
0?
0>
1=
#135000
0#
0:
0;
1-
#137500
1#
1:
1;
0-
1L
1'!
1h
0Q
1M
0C
0A
1?
0=
1<
14
1R
1N
0B
0M
0N
#140000
0#
0:
0;
1-
#142500
1#
1:
1;
0-
1x
0'!
1&!
1S
0H
0F
0D
1=
15
04
1B
0E
1U
0U
#145000
0#
0:
0;
1-
#147500
1#
1:
1;
0-
1'!
1H
1F
1D
1C
1A
1@
0=
0<
16
05
1E
0B
1X
#150000
0#
0:
0;
1-
#152500
1#
1:
1;
0-
1v
1%!
0'!
0&!
1Y
0E
17
06
1=
1B
1E
1[
#155000
0#
0:
0;
1-
#157500
1#
1:
1;
0-
1u
1'!
1\
1^
0C
0A
0=
1<
07
1_
0B
0E
0_
#160000
0#
0:
0;
1-
#162500
1#
1:
1;
0-
0'!
1&!
0^
0H
0F
0D
1=
18
1B
1E
1b
#165000
0#
0:
0;
1-
#167500
1#
1:
1;
0-
1s
1'!
1c
1H
1F
1D
1C
1A
0@
1>
0=
0<
19
08
0B
1e
0E
0e
#170000
0#
0:
0;
1-
#172500
1#
1:
1;
0-
0%!
1$!
0'!
0&!
1E
09
1B
#175000
0#
0:
0;
1-
#177500
1#
1:
1;
0-
0s
0u
0v
0x
0L
0$!
0c
0b
0\
0[
0Y
0X
0S
0R
0h
1Q
0?
0>
1=
#180000
0#
0:
0;
1-
#182500
1#
1:
1;
0-
1L
1'!
1h
0Q
1M
0C
0A
1?
0=
1<
14
1R
1N
0B
0M
0N
#185000
0#
0:
0;
1-
#187500
1#
1:
1;
0-
1x
0'!
1&!
1S
0H
0F
0D
1=
15
04
1B
0E
1U
0U
#190000
0#
0:
0;
1-
#192500
1#
1:
1;
0-
1'!
1H
1F
1D
1C
1A
1@
0=
0<
16
05
1E
0B
1X
#195000
0#
0:
0;
1-
#197500
1#
1:
1;
0-
1v
1%!
0'!
0&!
1Y
0E
17
06
1=
1B
1E
1[
#200000
b1111111 !
b111111 !
b110111 !
b110011 !
b1111011 "
b1111111 "
b1111101 "
0#
0"!
1!!
1|
0o
0n
0k
0j
0:
0;
1-
#202500
1#
1:
1;
0-
1u
1'!
1\
1^
0C
0=
1<
07
1_
0D
#205000
0#
0:
0;
1-
#207500
1#
1:
1;
0-
1t
0'!
1&!
1`
0^
0H
0F
1C
0A
1=
18
0I
0G
0B
1D
1B
1b
1Q
0J
0E
1E
0K
0b
1K
#210000
0#
0:
0;
1-
#212500
1#
1:
1;
0-
1'!
1H
1F
1A
0@
1>
0=
0<
19
08
0B
0E
1e
0K
#215000
0#
0:
0;
1-
#217500
1#
1:
1;
0-
1r
0L
0%!
1$!
0'!
0&!
1f
0h
0Q
1E
09
1I
1G
1B
1Q
1J
1K
#220000
0#
0:
0;
1-
#222500
1#
1:
1;
0-
0i
1g
0r
0d
1a
0t
0u
0v
0x
0$!
0f
0e
0`
0_
0\
0[
0Y
0X
0S
0R
0?
0>
1=
0$
1%
0&
1'
#225000
0#
0:
0;
1-
#227500
1#
1:
1;
0-
1L
1'!
1h
0Q
1M
0C
1?
0=
1<
14
1R
1N
0D
0M
0N
0E
0R
#230000
0#
0:
0;
1-
#232500
1#
1:
1;
0-
0'!
1&!
0H
0F
1C
0A
1=
15
04
0I
0G
0B
1D
1B
1Q
0J
1E
1U
0K
0U
1K
#235000
0#
0:
0;
1-
#237500
1#
1:
1;
0-
1'!
1H
1F
1A
1@
0=
0<
16
05
0B
#240000
0#
0:
0;
1-
#242500
1#
1:
1;
0-
1%!
0'!
0&!
0E
17
06
1=
1I
1G
1B
1[
0K
0Q
1J
1E
1K
#245000
0#
0:
0;
1-
#247500
1#
1:
1;
0-
1u
1'!
1\
1^
0C
0=
1<
07
1_
0D
#250000
0#
0:
0;
1-
#252500
1#
1:
1;
0-
1t
0'!
1&!
1`
0^
0H
0F
1C
0A
1=
18
0I
0G
0B
1D
1B
1b
1Q
0J
0E
1E
0K
0b
1K
#255000
0#
0:
0;
1-
#257500
1#
1:
1;
0-
1'!
1H
1F
1A
0@
1>
0=
0<
19
08
0B
0E
1e
0K
#260000
0#
0:
0;
1-
#262500
1#
1:
1;
0-
1r
0L
0%!
1$!
0'!
0&!
1f
0h
0Q
1E
09
1I
1G
1B
1Q
1J
1K
#265000
0#
0:
0;
1-
#267500
1#
1:
1;
0-
0r
0t
0u
0Z
0T
0$!
0f
0e
0`
0_
0\
0[
0?
0>
1=
0)
0+
#270000
0#
0:
0;
1-
#272500
1#
1:
1;
0-
1L
1'!
1h
0Q
1M
0C
1?
0=
1<
14
1R
1N
0D
0M
0N
0E
0R
#275000
0#
0:
0;
1-
#277500
1#
1:
1;
0-
0'!
1&!
0H
0F
1C
0A
1=
15
04
0I
0G
0B
1D
1B
1Q
0J
1E
1U
0K
0U
1K
#280000
0#
0:
0;
1-
#282500
1#
1:
1;
0-
1'!
1H
1F
1A
1@
0=
0<
16
05
0B
#285000
0#
0:
0;
1-
#287500
1#
1:
1;
0-
1%!
0'!
0&!
0E
17
06
1=
1I
1G
1B
1[
0K
0Q
1J
1E
1K
#290000
0#
0:
0;
1-
#292500
1#
1:
1;
0-
1u
1'!
1\
1^
0C
0=
1<
07
1_
0D
#295000
0#
0:
0;
1-
#297500
1#
1:
1;
0-
1t
0'!
1&!
1`
0^
0H
0F
1C
0A
1=
18
0I
0G
0B
1D
1B
1b
1Q
0J
0E
1E
0K
0b
1K
#300000
0#
0:
0;
1-
#302500
1#
1:
1;
0-
1'!
1H
1F
1A
0@
1>
0=
0<
19
08
0B
0E
1e
0K
#305000
0#
0:
0;
1-
#307500
1#
1:
1;
0-
1r
0L
0%!
1$!
0'!
0&!
1f
0h
0Q
1E
09
1I
1G
1B
1Q
1J
1K
#310000
0#
0:
0;
1-
#312500
1#
1:
1;
0-
0r
0t
0u
0$!
0f
0e
0`
0_
0\
0[
0?
0>
1=
#315000
0#
0:
0;
1-
#317500
1#
1:
1;
0-
1L
1'!
1h
0Q
1M
0C
1?
0=
1<
14
1R
1N
0D
0M
0N
0E
0R
#320000
0#
0:
0;
1-
#322500
1#
1:
1;
0-
0'!
1&!
0H
0F
1C
0A
1=
15
04
0I
0G
0B
1D
1B
1Q
0J
1E
1U
0K
0U
1K
#325000
0#
0:
0;
1-
#327500
1#
1:
1;
0-
1'!
1H
1F
1A
1@
0=
0<
16
05
0B
#330000
0#
0:
0;
1-
#332500
1#
1:
1;
0-
1%!
0'!
0&!
0E
17
06
1=
1I
1G
1B
1[
0K
0Q
1J
1E
1K
#335000
0#
0:
0;
1-
#337500
1#
1:
1;
0-
1u
1'!
1\
1^
0C
0=
1<
07
1_
0D
#340000
0#
0:
0;
1-
#342500
1#
1:
1;
0-
1t
0'!
1&!
1`
0^
0H
0F
1C
0A
1=
18
0I
0G
0B
1D
1B
1b
1Q
0J
0E
1E
0K
0b
1K
#345000
0#
0:
0;
1-
#347500
1#
1:
1;
0-
1'!
1H
1F
1A
0@
1>
0=
0<
19
08
0B
0E
1e
0K
#350000
0#
0:
0;
1-
#352500
1#
1:
1;
0-
1r
0L
0%!
1$!
0'!
0&!
1f
0h
0Q
1E
09
1I
1G
1B
1Q
1J
1K
#355000
0#
0:
0;
1-
#357500
1#
1:
1;
0-
0r
0t
0u
0$!
0f
0e
0`
0_
0\
0[
0?
0>
1=
#360000
0#
0:
0;
1-
#362500
1#
1:
1;
0-
1L
1'!
1h
0Q
1M
0C
1?
0=
1<
14
1R
1N
0D
0M
0N
0E
0R
#365000
0#
0:
0;
1-
#367500
1#
1:
1;
0-
0'!
1&!
0H
0F
1C
0A
1=
15
04
0I
0G
0B
1D
1B
1Q
0J
1E
1U
0K
0U
1K
#370000
0#
0:
0;
1-
#372500
1#
1:
1;
0-
1'!
1H
1F
1A
1@
0=
0<
16
05
0B
#375000
0#
0:
0;
1-
#377500
1#
1:
1;
0-
1%!
0'!
0&!
0E
17
06
1=
1I
1G
1B
1[
0K
0Q
1J
1E
1K
#380000
0#
0:
0;
1-
#382500
1#
1:
1;
0-
1u
1'!
1\
1^
0C
0=
1<
07
1_
0D
#385000
0#
0:
0;
1-
#387500
1#
1:
1;
0-
1t
0'!
1&!
1`
0^
0H
0F
1C
0A
1=
18
0I
0G
0B
1D
1B
1b
1Q
0J
0E
1E
0K
0b
1K
#390000
0#
0:
0;
1-
#392500
1#
1:
1;
0-
1'!
1H
1F
1A
0@
1>
0=
0<
19
08
0B
0E
1e
0K
#395000
0#
0:
0;
1-
#397500
1#
1:
1;
0-
1r
0L
0%!
1$!
0'!
0&!
1f
0h
0Q
1E
09
1I
1G
1B
1Q
1J
1K
#400000
b10011 !
b11 !
b10 !
b111101 "
b101101 "
b1010 !
b1101 "
b1001 "
0#
0!!
0}
0|
0{
0q
1n
0m
0l
0:
0;
1-
0A
0H
0F
0B
0I
0G
0Q
0J
0K
#402500
1#
1:
1;
0-
0r
0t
0u
0$!
0f
0e
0`
0_
0\
0[
0?
0>
1=
1N
#405000
0#
0:
0;
1-
#407500
1#
1:
1;
0-
1y
1'!
1O
1H
0C
1?
0=
1<
14
1I
0D
0N
1M
1R
1Q
1N
1J
0E
#410000
0#
0:
0;
1-
#412500
1#
1:
1;
0-
1x
0'!
1&!
1S
0H
1=
15
04
0I
1U
0Q
0J
0U
#415000
0#
0:
0;
1-
#417500
1#
1:
1;
0-
1'!
1H
1F
1C
1A
1@
0=
0<
16
05
1I
1D
1Q
1J
1E
1K
#420000
0#
0:
0;
1-
#422500
1#
1:
1;
0-
1L
1%!
0'!
0&!
1h
0J
0E
17
06
0H
0F
0A
1=
1G
1B
0K
1[
0I
0G
0B
0Q
1J
1E
1Q
0J
0E
1K
0K
#425000
0#
0:
0;
1-
#427500
1#
1:
1;
0-
1u
0L
1'!
1\
0h
0Q
1^
1H
0C
0=
1<
07
1I
0D
#430000
0#
0:
0;
1-
#432500
1#
1:
1;
0-
0'!
1&!
0^
0H
1=
18
0I
#435000
0#
0:
0;
1-
#437500
1#
1:
1;
0-
1'!
1H
1F
1C
1A
0@
1>
0=
0<
19
08
1I
1D
#440000
0#
0:
0;
1-
#442500
1#
1:
1;
0-
0%!
1$!
0'!
0&!
1Q
1J
1E
09
0H
0F
0A
1G
1B
1K
0I
0G
0B
0Q
0J
0K
#445000
0#
0:
0;
1-
#447500
1#
1:
1;
0-
0g
0a
0u
1T
0x
1P
0y
0$!
0\
0[
0S
0R
0O
0M
0?
0>
1=
0%
0'
1+
1,
#450000
0#
0:
0;
1-
#452500
1#
1:
1;
0-
1y
1'!
1O
1H
0C
1?
0=
1<
14
1I
0D
0N
1M
1R
1Q
1N
1J
0E
#455000
0#
0:
0;
1-
#457500
1#
1:
1;
0-
1x
0'!
1&!
1S
0H
1=
15
04
0I
1U
0Q
0J
0U
#460000
0#
0:
0;
1-
#462500
1#
1:
1;
0-
1'!
1H
1F
1C
1A
1@
0=
0<
16
05
1I
1D
1Q
1J
1E
1K
#465000
0#
0:
0;
1-
#467500
1#
1:
1;
0-
1L
1%!
0'!
0&!
1h
0J
0E
17
06
0H
0F
0A
1=
1G
1B
0K
1[
0I
0G
0B
0Q
1J
1E
1Q
0J
0E
1K
0K
#470000
0#
0:
0;
1-
#472500
1#
1:
1;
0-
1u
0L
1'!
1\
0h
0Q
1^
1H
0C
0=
1<
07
1I
0D
#475000
0#
0:
0;
1-
#477500
1#
1:
1;
0-
0'!
1&!
0^
0H
1=
18
0I
#480000
0#
0:
0;
1-
#482500
1#
1:
1;
0-
1'!
1H
1F
1C
1A
0@
1>
0=
0<
19
08
1I
1D
#485000
0#
0:
0;
1-
#487500
1#
1:
1;
0-
0%!
1$!
0'!
0&!
1Q
1J
1E
09
0H
0F
0A
1G
1B
1K
0I
0G
0B
0Q
0J
0K
#490000
0#
0:
0;
1-
#492500
1#
1:
1;
0-
0u
0x
0y
0$!
0\
0[
0S
0R
0O
0M
0?
0>
1=
#495000
0#
0:
0;
1-
#497500
1#
1:
1;
0-
1y
1'!
1O
1H
0C
1?
0=
1<
14
1I
0D
0N
1M
1R
1Q
1N
1J
0E
#500000
0#
0:
0;
1-
#502500
1#
1:
1;
0-
1x
0'!
1&!
1S
0H
1=
15
04
0I
1U
0Q
0J
0U
#505000
0#
0:
0;
1-
#507500
1#
1:
1;
0-
1'!
1H
1F
1C
1A
1@
0=
0<
16
05
1I
1D
1Q
1J
1E
1K
#510000
0#
0:
0;
1-
#512500
1#
1:
1;
0-
1L
1%!
0'!
0&!
1h
0J
0E
17
06
0H
0F
0A
1=
1G
1B
0K
1[
0I
0G
0B
0Q
1J
1E
1Q
0J
0E
1K
0K
#515000
0#
0:
0;
1-
#517500
1#
1:
1;
0-
1u
0L
1'!
1\
0h
0Q
1^
1H
0C
0=
1<
07
1I
0D
#520000
0#
0:
0;
1-
#522500
1#
1:
1;
0-
0'!
1&!
0^
0H
1=
18
0I
#525000
0#
0:
0;
1-
#527500
1#
1:
1;
0-
1'!
1H
1F
1C
1A
0@
1>
0=
0<
19
08
1I
1D
#530000
0#
0:
0;
1-
#532500
1#
1:
1;
0-
0%!
1$!
0'!
0&!
1Q
1J
1E
09
0H
0F
0A
1G
1B
1K
0I
0G
0B
0Q
0J
0K
#535000
0#
0:
0;
1-
#537500
1#
1:
1;
0-
0u
0x
0y
0$!
0\
0[
0S
0R
0O
0M
0?
0>
1=
#540000
0#
0:
0;
1-
#542500
1#
1:
1;
0-
1y
1'!
1O
1H
0C
1?
0=
1<
14
1I
0D
0N
1M
1R
1Q
1N
1J
0E
#545000
0#
0:
0;
1-
#547500
1#
1:
1;
0-
1x
0'!
1&!
1S
0H
1=
15
04
0I
1U
0Q
0J
0U
#550000
0#
0:
0;
1-
#552500
1#
1:
1;
0-
1'!
1H
1F
1C
1A
1@
0=
0<
16
05
1I
1D
1Q
1J
1E
1K
#555000
0#
0:
0;
1-
#557500
1#
1:
1;
0-
1L
1%!
0'!
0&!
1h
0J
0E
17
06
0H
0F
0A
1=
1G
1B
0K
1[
0I
0G
0B
0Q
1J
1E
1Q
0J
0E
1K
0K
#560000
0#
0:
0;
1-
#562500
1#
1:
1;
0-
1u
0L
1'!
1\
0h
0Q
1^
1H
0C
0=
1<
07
1I
0D
#565000
0#
0:
0;
1-
#567500
1#
1:
1;
0-
0'!
1&!
0^
0H
1=
18
0I
#570000
0#
0:
0;
1-
#572500
1#
1:
1;
0-
1'!
1H
1F
1C
1A
0@
1>
0=
0<
19
08
1I
1D
#575000
0#
0:
0;
1-
#577500
1#
1:
1;
0-
0%!
1$!
0'!
0&!
1Q
1J
1E
09
0H
0F
0A
1G
1B
1K
0I
0G
0B
0Q
0J
0K
#580000
0#
0:
0;
1-
#582500
1#
1:
1;
0-
0u
0x
0y
0$!
0\
0[
0S
0R
0O
0M
0?
0>
1=
#585000
0#
0:
0;
1-
#587500
1#
1:
1;
0-
1y
1'!
1O
1H
0C
1?
0=
1<
14
1I
0D
0N
1M
1R
1Q
1N
1J
0E
#590000
0#
0:
0;
1-
#592500
1#
1:
1;
0-
1x
0'!
1&!
1S
0H
1=
15
04
0I
1U
0Q
0J
0U
#595000
0#
0:
0;
1-
#597500
1#
1:
1;
0-
1'!
1H
1F
1C
1A
1@
0=
0<
16
05
1I
1D
1Q
1J
1E
1K
#600000
b10001001 "
b10001010 !
b11001010 !
b11001110 !
b10001011 "
b11101110 !
b11111110 !
b11001011 "
b11011011 "
b11111011 "
0#
1o
1m
1l
1k
1j
1"!
1}
1|
1{
1z
0:
0;
1-
1G
1B
#602500
1#
1:
1;
0-
1L
1%!
0'!
0&!
1h
0Q
17
06
0H
1=
1[
0I
#605000
0#
0:
0;
1-
#607500
1#
1:
1;
0-
1u
1'!
1\
1^
1H
0C
0=
1<
07
1_
1I
#610000
0#
0:
0;
1-
#612500
1#
1:
1;
0-
1t
0'!
1&!
1`
0^
0H
0F
0D
0A
1=
18
1b
#615000
0#
0:
0;
1-
#617500
1#
1:
1;
0-
1s
1'!
1c
1H
1F
1D
1C
1A
0@
1>
0=
0<
19
08
1e
#620000
0#
0:
0;
1-
#622500
1#
1:
1;
0-
1r
0%!
1$!
0'!
0&!
1f
09
0H
0I
1Q
0J
#625000
0#
0:
0;
1-
#627500
1#
1:
1;
0-
1i
1g
0r
1d
0s
1a
0t
0u
0x
0y
0L
0$!
0f
0e
0c
0b
0`
0_
0\
0[
0S
0R
0O
0M
0h
0Q
0K
0?
0>
1=
1$
1%
1&
1'
#630000
0#
0:
0;
1-
#632500
1#
1:
1;
0-
1y
1'!
1O
1H
0C
1?
0=
1<
14
1I
0N
1M
1R
1Q
1N
1J
0R
1K
#635000
0#
0:
0;
1-
#637500
1#
1:
1;
0-
1L
0'!
1&!
1h
0Q
0H
0F
0D
0A
1=
15
04
1U
0E
0U
#640000
0#
0:
0;
1-
#642500
1#
1:
1;
0-
1'!
1H
1F
1D
1C
1A
1@
0=
0<
16
05
1E
1X
#645000
0#
0:
0;
1-
#647500
1#
1:
1;
0-
1v
1%!
0'!
0&!
1Y
17
06
0H
1=
1[
0I
#650000
0#
0:
0;
1-
#652500
1#
1:
1;
0-
1u
1'!
1\
1^
1H
0C
0=
1<
07
1_
1I
#655000
0#
0:
0;
1-
#657500
1#
1:
1;
0-
1t
0'!
1&!
1`
0^
0H
0F
0D
0A
1=
18
1b
#660000
0#
0:
0;
1-
#662500
1#
1:
1;
0-
1s
1'!
1c
1H
1F
1D
1C
1A
0@
1>
0=
0<
19
08
1e
#665000
0#
0:
0;
1-
#667500
1#
1:
1;
0-
1r
0%!
1$!
0'!
0&!
1f
09
0H
0I
1Q
0J
#670000
0#
0:
0;
1-
#672500
1#
1:
1;
0-
0r
0s
0t
0u
1Z
0v
0T
0y
0L
0$!
0f
0e
0c
0b
0`
0_
0\
0[
0Y
0X
0O
0M
0h
0Q
0K
0?
0>
1=
1)
0+
#675000
0#
0:
0;
1-
#677500
1#
1:
1;
0-
1y
1'!
1O
1H
0C
1?
0=
1<
14
1I
0N
1M
1R
1Q
1N
1J
0R
1K
#680000
0#
0:
0;
1-
#682500
1#
1:
1;
0-
1L
0'!
1&!
1h
0Q
0H
0F
0D
0A
1=
15
04
1U
0E
0U
#685000
0#
0:
0;
1-
#687500
1#
1:
1;
0-
1'!
1H
1F
1D
1C
1A
1@
0=
0<
16
05
1E
1X
#690000
0#
0:
0;
1-
#692500
1#
1:
1;
0-
1v
1%!
0'!
0&!
1Y
17
06
0H
1=
1[
0I
#695000
0#
0:
0;
1-
#697500
1#
1:
1;
0-
1u
1'!
1\
1^
1H
0C
0=
1<
07
1_
1I
#700000
0#
0:
0;
1-
#702500
1#
1:
1;
0-
1t
0'!
1&!
1`
0^
0H
0F
0D
0A
1=
18
1b
#705000
0#
0:
0;
1-
#707500
1#
1:
1;
0-
1s
1'!
1c
1H
1F
1D
1C
1A
0@
1>
0=
0<
19
08
1e
#710000
0#
0:
0;
1-
#712500
1#
1:
1;
0-
1r
0%!
1$!
0'!
0&!
1f
09
0H
0I
1Q
0J
#715000
0#
0:
0;
1-
#717500
1#
1:
1;
0-
0r
0s
0t
0u
0v
0y
0L
0$!
0f
0e
0c
0b
0`
0_
0\
0[
0Y
0X
0O
0M
0h
0Q
0K
0?
0>
1=
#720000
0#
0:
0;
1-
#722500
1#
1:
1;
0-
1y
1'!
1O
1H
0C
1?
0=
1<
14
1I
0N
1M
1R
1Q
1N
1J
0R
1K
#725000
0#
0:
0;
1-
#727500
1#
1:
1;
0-
1L
0'!
1&!
1h
0Q
0H
0F
0D
0A
1=
15
04
1U
0E
0U
#730000
0#
0:
0;
1-
#732500
1#
1:
1;
0-
1'!
1H
1F
1D
1C
1A
1@
0=
0<
16
05
1E
1X
#735000
0#
0:
0;
1-
#737500
1#
1:
1;
0-
1v
1%!
0'!
0&!
1Y
17
06
0H
1=
1[
0I
#740000
0#
0:
0;
1-
#742500
1#
1:
1;
0-
1u
1'!
1\
1^
1H
0C
0=
1<
07
1_
1I
#745000
0#
0:
0;
1-
#747500
1#
1:
1;
0-
1t
0'!
1&!
1`
0^
0H
0F
0D
0A
1=
18
1b
#750000
0#
0:
0;
1-
#752500
1#
1:
1;
0-
1s
1'!
1c
1H
1F
1D
1C
1A
0@
1>
0=
0<
19
08
1e
#755000
0#
0:
0;
1-
#757500
1#
1:
1;
0-
1r
0%!
1$!
0'!
0&!
1f
09
0H
0I
1Q
0J
#760000
0#
0:
0;
1-
#762500
1#
1:
1;
0-
0r
0s
0t
0u
0v
0y
0L
0$!
0f
0e
0c
0b
0`
0_
0\
0[
0Y
0X
0O
0M
0h
0Q
0K
0?
0>
1=
#765000
0#
0:
0;
1-
#767500
1#
1:
1;
0-
1y
1'!
1O
1H
0C
1?
0=
1<
14
1I
0N
1M
1R
1Q
1N
1J
0R
1K
#770000
0#
0:
0;
1-
#772500
1#
1:
1;
0-
1L
0'!
1&!
1h
0Q
0H
0F
0D
0A
1=
15
04
1U
0E
0U
